<svg xmlns="http://www.w3.org/2000/svg" width="300" height="300" viewBox="0 0 32 32">
  <path d="M15.22,23.41c0.1,0.1,0.23,0.19,0.36,0.24c0.01,0,0.01,0,0.02,0.01c0.13,0.05,0.26,0.08,0.4,0.08 c0.14,0,0.28-0.03,0.4-0.08c0.01,0,0.01,0,0.02-0.01c0.14-0.06,0.26-0.14,0.36-0.24l6.55-6.55c0.43-0.43,0.43-1.13,0-1.56 c-0.43-0.43-1.13-0.43-1.56,0l-4.66,4.66V3.11C17.11,2.49,16.61,2,16,2s-1.11,0.49-1.11,1.11v16.85l-4.66-4.66 c-0.43-0.43-1.13-0.43-1.56,0c-0.43,0.43-0.43,1.13,0,1.56L15.22,23.41z"/>
  <path d="M24.4,27.79H7.6c-0.61,0-1.11,0.49-1.11,1.11S6.99,30,7.6,30H24.4c0.61,0,1.11-0.49,1.11-1.11S25.01,27.79,24.4,27.79z"/>
</svg>
